[gd_scene load_steps=10 format=2]

[ext_resource path="res://Node2D.gd" type="Script" id=1]
[ext_resource path="res://backgroundEmpty.png" type="Texture" id=2]
[ext_resource path="res://Tiles/platformPack_tile041.png" type="Texture" id=3]
[ext_resource path="res://Tiles/platformPack_tile019.png" type="Texture" id=4]
[ext_resource path="res://Tiles/platformPack_tile029.png" type="Texture" id=5]
[ext_resource path="res://Tiles/platformPack_tile009.png" type="Texture" id=6]
[ext_resource path="res://Tiles/platformPack_tile020.png" type="Texture" id=7]
[ext_resource path="res://Personaje.tscn" type="PackedScene" id=8]

[sub_resource type="TileSet" id=1]
0/name = "0"
0/texture = ExtResource( 3 )
0/tex_offset = Vector2( 0, 0 )
0/modulate = Color( 1, 1, 1, 1 )
0/region = Rect2( 0, 0, 64, 64 )
0/tile_mode = 0
0/occluder_offset = Vector2( 0, 0 )
0/navigation_offset = Vector2( 0, 0 )
0/shapes = [  ]
0/z_index = 0
1/name = "1"
1/texture = ExtResource( 4 )
1/tex_offset = Vector2( 0, 0 )
1/modulate = Color( 1, 1, 1, 1 )
1/region = Rect2( 0, 0, 64, 64 )
1/tile_mode = 0
1/occluder_offset = Vector2( 0, 0 )
1/navigation_offset = Vector2( 0, 0 )
1/shapes = [  ]
1/z_index = 0
2/name = "3"
2/texture = ExtResource( 5 )
2/tex_offset = Vector2( 0, 0 )
2/modulate = Color( 1, 1, 1, 1 )
2/region = Rect2( 0, 0, 64, 64 )
2/tile_mode = 0
2/occluder_offset = Vector2( 0, 0 )
2/navigation_offset = Vector2( 0, 0 )
2/shapes = [  ]
2/z_index = 0
3/name = "2"
3/texture = ExtResource( 6 )
3/tex_offset = Vector2( 0, 0 )
3/modulate = Color( 1, 1, 1, 1 )
3/region = Rect2( 0, 0, 64, 64 )
3/tile_mode = 0
3/occluder_offset = Vector2( 0, 0 )
3/navigation_offset = Vector2( 0, 0 )
3/shapes = [  ]
3/z_index = 0
4/name = "4"
4/texture = ExtResource( 7 )
4/tex_offset = Vector2( 0, 0 )
4/modulate = Color( 1, 1, 1, 1 )
4/region = Rect2( 0, 0, 64, 64 )
4/tile_mode = 0
4/occluder_offset = Vector2( 0, 0 )
4/navigation_offset = Vector2( 0, 0 )
4/shapes = [  ]
4/z_index = 0

[node name="Node2D" type="Node2D"]
script = ExtResource( 1 )

[node name="backgroundEmpty" type="Sprite" parent="."]
position = Vector2( 990.409, 418.437 )
scale = Vector2( 2.09322, 2.09322 )
texture = ExtResource( 2 )

[node name="TileMap" type="TileMap" parent="."]
tile_set = SubResource( 1 )
format = 1

[node name="Camera2D" type="Camera2D" parent="."]
position = Vector2( 992.652, 655.698 )
current = true
zoom = Vector2( 2, 2.2 )

[node name="Node2D" parent="." instance=ExtResource( 8 )]
position = Vector2( 33.0728, 96.4604 )
scale = Vector2( 0.45, 0.45 )
