[gd_scene load_steps=3 format=2]

[ext_resource path="res://Main.gd" type="Script" id=1]
[ext_resource path="res://Sprite/backgroundEmpty.png" type="Texture" id=2]

[node name="Main" type="Node2D"]
script = ExtResource( 1 )

[node name="Sprite" type="Sprite" parent="."]
position = Vector2( 514.687, 280.925 )
texture = ExtResource( 2 )
