[gd_scene load_steps=7 format=2]

[ext_resource path="res://Pajaro.gd" type="Script" id=1]
[ext_resource path="res://Sprite/BirdS_0003_Capa-0.png" type="Texture" id=2]
[ext_resource path="res://Sprite/BirdS_0000_Capa-1.png" type="Texture" id=3]
[ext_resource path="res://Sprite/BirdS_0001_Capa-2.png" type="Texture" id=4]
[ext_resource path="res://Sprite/BirdS_0002_Capa-3.png" type="Texture" id=5]

[sub_resource type="SpriteFrames" id=1]
animations = [ {
"frames": [ ExtResource( 2 ), ExtResource( 3 ), ExtResource( 4 ), ExtResource( 5 ) ],
"loop": true,
"name": "default",
"speed": 30.0
} ]

[node name="Vehicle" type="Node2D"]
script = ExtResource( 1 )

[node name="Sprite" type="AnimatedSprite" parent="."]
position = Vector2( 3.36326e-15, 0.0533257 )
scale = Vector2( 0.5, 0.5 )
frames = SubResource( 1 )
frame = 2
playing = true
flip_h = true
flip_v = true
