[gd_scene load_steps=4 format=2]

[ext_resource path="res://Sprites/red_panel.png" type="Texture" id=1]
[ext_resource path="res://Sprites/purple1.png" type="Texture" id=2]
[ext_resource path="res://Sprites/red.png" type="Texture" id=3]

[node name="EmpateTijeras" type="Control"]
rect_scale = Vector2( 0.5, 0.5 )

[node name="Sprite" type="Sprite" parent="."]
position = Vector2( 50.2221, 49.9301 )
texture = ExtResource( 1 )

[node name="purple2" type="Sprite" parent="Sprite"]
position = Vector2( -23.856, 0.403641 )
scale = Vector2( 0.8, 0.8 )
texture = ExtResource( 2 )

[node name="red2" type="Sprite" parent="Sprite"]
position = Vector2( 22.7157, 0.403641 )
scale = Vector2( 0.8, 0.8 )
texture = ExtResource( 3 )
