[gd_scene load_steps=3 format=2]

[ext_resource path="res://Models/Fish/pez.obj" type="ArrayMesh" id=1]
[ext_resource path="res://Pajaro.gd" type="Script" id=2]

[node name="pez" type="MeshInstance"]
transform = Transform( 0.2, 0, 0, 0, 0.2, 0, 0, 0, 0.2, -17.9101, 3.27665, -9.30709 )
mesh = ExtResource( 1 )
material/0 = null
script = ExtResource( 2 )
